
## 195: Chauncey Whittelsey Revolutionary War provision records [part 4], 1707-1855
### page 1
transcription is not complete
Chauncey Whittelsey Esq. To Charles Miller Dr.
1781
Jany.        To  1.31 Casks, Containing 1566 Bushs. Salt………………………..@ £50.10/....79.083.-.-

         5    "    Cash  paid  Truckage   8    Hhd.   Salt fm. Vessell to Store......56. -.-
               "    ditto…do…..Storage    23..do…...do…………………………….34.10.-    

Feby. 24    "    ditto…do…..do………...10..do…...do…….one Month………...30.-.-

               "    ditto…do…..do………...10..do…...Rum….do…………………..30.-.-

March 9    “    ditto…do…..do………...Rum & Salt…………………………...3.69.-.-

               “    ditto...do…..Truckage  20 Casks Rum…………………………...60.-.-
        22    “    ditto...do…..Daniel Parker (unclear) Note hund?……………………...........25765.-.-
               “    Transportation of 247 Casks contg. 3074 Bushl. Salt from       }
                     Boston to Providence – equal to 123 tons – 45 miles at £5.8/  }..29.889.-.-
               “    Transportation 64 Casks W.I. Rum, equal to 19 tons                }
                     from Boston to Providence 45 miles at £5.8/                          }…4.617. - .-
                                                                                                                35.085.10.-
### page 2
2 Bolts duck                                 4..14..2
Recognition &                                    2..8
unclear
1 Chest Tea No. 19  213.54.159
deduct for Mr. Green             24

                                        135}

out of unclear & No. 27       4}  11..11.. 3
Commissions                       139         8..11

                                              £16..17.. 0

for Whittelsey & Hubbard
_____________________
4 Bolts Duck                                              9..8..4
Recognition &c                                              5..4
unclear
No. 18 1 Chest Tea 225 Gross 54    171

     23 1 do           220           54    166
     27 1 do            216          54    163
                                                   500
     deduct from Chest of?}
                           for W & H}            4
                                                   496       41..7..1
          Commissions charged}
                       by Mr. Green}                      1..6..3
                                                             £52..7..0

Copy Accd. with Parsons & Cooley
unclear Parsons & Cooley to Capt. pd. for Expenses 3..10..4 1/2
### page 3
Recd Middletown of Jany 5th 1781 of Mr Chauncey Whittelsey a Discharge of all Clothg Acct in full against the town of Wallingford in Consideration of my having Pd him Two Pounds Eighteen Shillings State money David Hall Selectman
### page 4
Rect Town of Wallingford
David Hall
Jany 5th 1781
Entered
### page 5
Newlundon Janu 11th 1785
Mr. Chuncy Whittlecey Esqr to John Humphrey to freight of 135 Booshels Salt at 4 unclear Booshel
£73-10-0
### page 6
John Humphry
Bill [unclear] Salt
Jany 1781
### page 7
New London Jany.12.1781
Sir
pr Capt. Waterman we recd. One Hundred & thirteen Bushells Salt, & by Capt. John Humphrey Seven Hundred & thirty five Bushels Salt as measured when Taken into our Store
youl observe if falls short in Measuring? over again, from what they received it at.
Inclosed is Capt. Humphreys Acct. which he requested strikethrough: me us to forward to you in order that you might send him the Money here against he returns here unclear a few Days damaged we gave Receipts for no more Salt than is measured when we took it in
we are Sir
your Most Hbl Servts
Edward Hallam & Co
### page 8
Chauncy Whittelsey Esq
Middletown
### page 9
Recd. Middletown Jany 12th 1781 of Chauncy Whittlesey twelve Lord Dollars for freight of four half Chests Tea & three Mats Duck from Bedford to Middletown
Br Wm Akin
### page 10
Wm Akins's
Bill of Freight
### page 11
Providence January 13 1781
Sir
I have sent pr Mr Jno Humphrey Seven hundred & Fifty five Bushels of the salt belong to ye Sale? of damaged left in my care by you. The following is a Duplicate of the Recpt
Recd of Mr Samuel Hamlin of Providence Seven hundred & Fifty five Bushels of salt belonging to ye State of Connecticutt which I promise to Dlr? to Chauncy Whittlesey Esqr @ Middletown or in his absenc to Mr Josh. King, should the river be shut to Mr Edward Hallam of New London for Customery freight Danger of y? Teas & unclear excepted
Siny? Jno Humphrey
I have sent pr Capt Waterman one hundred and & strikethrough: twenty Twenty Bushels of ye salt?  unclear to ye Sale? of Connecticutt the sic the same direction as was given to Mr Humphry and on ye same terms
I am your most Obl & very
Huml. Servt
Saml Hamlin
NB Sir, I will thank you to mention?] to Mr G Meass? that I have sent the 2 bags of wool he left in my care pr Capt Waterman
### page 12
Chauncey Whittelsey Esqr
Middletown
Saml Hamlins
Letter Jany. 1781
Ed. Hallam's
Letter Jany. 1781
### page 13
Middletown Januy 15th 1781--
Recvd Of Chauncey Whittlesey Esqr 737? 757? States Money Which is due to Capt John Benjamin Stratford
Ephm Beardslee
### page 14
Rect
Ephraim Beardsley
Jany 15th 1781
Rect E Beardsley
Recd in full
Ephraim Beardsley
for 
J. Benjamin
### page 15
Middletown 31st Jan'ry 1781
Sir
pay, or discount W. Lamberton Cooper twenty pounds State money, and take up a Note he has against my Brother George & you'l oblige yours
John Wells
Chancy Whlttelsy Esqr
Middletown
### page 16
John Welles's
order
Janury 31st 1781
Lumt? Cooper
### page 17
Salem 1 Feby. 1781
Sir
Your esteemd favour of 27th ulto. came safe to hand. Inclosing the first of two Setts Bills Exchange upon Treasure at Paris for Eight thousand five hundred & Fifty Livres, the Small Balance is so Trifeling, that I beg you will not Trouble yourself to send strikethrough: (unclear) Consider your note as paid. I have Inclosed the Bills upon the note & consider it fully Paid, & will send it At the first opportunity, you will Please to Receive of Mrs. Clay the Money for the three Hhd. Rum which she sold us. I feal myself under particular obligatn. for your attention in sending me the Bills. I should be happy in keeping up a Correspondence with you & if I can be of any Service in Transacting Business here for you it will aford me Pleasure, our Friend unclear Clay has safe arivd. once more in the W. Indies I make no doubt he will make a good hand of it this winter, below you have price Curt. of W. Indies goods perhaps it may be of Some Advantage
I Am
Sir with Respect
yr. Most Obt. Sert.
Wm. Gray Jr
unclear
W.I. Rum     £20 Cent.?
N.? do      13.10
Sugar —    £180 pd.?
Coffee —      48/. pd.?
Cotton —     132/. pr?
Mr. Chauncey Whittlesley
### page 18
Letter
Wm Grey Junr.
Salem Febry 1st
1781
### page 19
Fabu 8th
1781
attn Chanse Whittlese To Jno Humphry to Freight of 122 Booshell of Salt from Provedence to Newlundon at 2/pr Booshell States Money £12-4-0
### page 20
New London Feby. 8.1781
Sir,
have recd. an Addition of Salt from Mr Humphrys of One Hundred & twenty two bushels — for the State of Connecticut — Mr Humphrys Requests you to send the Freight to our care that I may send it him
Are Sir your Most Hbl Servt.
Edward Hallam & Co
Chauncy Whittlesey Esqr
### page 21
Ed Hallam's
Letter & Rect
Feby 8th 1781
### page 22
Boston Feby 8. 1781
Sir
Your favor of 3d Instant Inclosing a Bill of Exchange, have duly Reced &  Note ye Contents, I wrote you the 18th ulto. by post, the Receipt of wch you do not Acknowledge. The Bill you have sent me is so Large, that it will be difficult Selling it, at least it will not sell for so much a Smaller one.
I shall take care and Send or you a proper Voucher of the Sale of the Bill. I am entirely Satisfyed with the payment you have made. 
I Shall begin immediately to Send on the Rum & salt agreeable to your Request & if your money does not come in Season, shall do the best I can for your Interests
You mention only a part? of the Salt to be forwarded. I must request you to let me know by return of the post how much I shall Send on. If The weather holds Good, can have the whole delivered at Providence in 15 days. I know very well how those great Bodys Act when they have got a poor fellow to transact any Business for them If they get their ends answerd
### page 23
answered, then the Devil take the hindmost
If you should have any other calls for any kind of Good from this Quarter, I always Stand to obay your Commands
I am in haste
Your most Obd Ser
Charles Miller
Price Current
WI Rum £21 w 22.10/
NE ditto £13.10/
Salt — 43 to 45 without Casks?
Sugars 170 to 180  Coffee 50/
Chocolate 72/ Bohea Tea £21
Charles Miller Esqr
Letter Feby 18th 1781
### page 24
Chatham February 20th 1781
To Mr Chauncy Whittlese Sir Pay Hanover and of Jack knifes Twenty Seven Pounds Ten Shillings Hand money on the Discount in Continental or State Bills and I? Will acount the Same With by Way of the Ship Chatham and youl Oblige.
your Humble Servant Chauncy Bulkley
### page 25
Chy Bulkleys order
Recd. the within order in full
pr Isaac Knap
### page 26
Boston March 1st 1781
Sir
Your favor of 14th Ult. came to (ie.,[uncertain]) by Post Last Evening— I have sold the Bill of Exchange at fifty three for one after much Difficulty had I been able to have kept it to this time, it would have sold for much more — Supposing from your letter 3rd. Ult.,that you wanted all your Rum & Salt Forwarded I have been pushing it with all Expedition, have only now about fifteen Loads Remaining on board, which will go on in a Day or Two — But I am much Disappointed in not Receiving a Remittance by this Opportunity as you wrote me in yours of 3rd. Ulto "that you expected in a few Days to be able to Remitt me Three or four hundred pounds, New Continental," on the strength of this I made no Doubt that I Should soon be repaid what Cash I Advanced — I must Therefore Beg you to use ye Utmost Endeavours to Remitt me by Return of Post, as I want Every Farthing of my own Money to purchase Bills, as they are about Rising fast
The
### page 27
The French having Ten Millions of Livres Arrived in this Harbour, in hard Cash — As soon as I have compleated forwarding the Goods I Shall send you a particular Account of them — Pray push your great men for Cash — 
I am Sir
your Most Hbl. Sert.
Charles Miller
Letter
Charles Miller Esq
March 1st - 1781
Chauncey Whittlelsey Esq
### page 28
Account of Rum & Salt Received from Daniel Parker, on Acct. of Chauncey Whittelsey Esq. of Middletown, & forwarded to Providence — to Mr. Samuel Hamlin — — —
Viz:
64 Casks W.I. Rum Cont. 3987 Gallons
116 do.    Salt          do.  1508. Bushells
### page 29
Recd. Hartford March 30th 1781 of Chauncey Whittelsey one Pay Table Order for forty four Thousand Nine Hundred & Seventy Continental Dollars remitted before the first of Jany 1780, on Acct
Br Geo.. Merrills
Dollars 44,970
### page 30
Rect.
George Merrills
Apl. 1st 1781
E
### page 31
Dr Whittlesey Hubbard, Parsons & Cooly in Acct of Adventure to Gottenburg To Caleb Greene -  COD
1781 Amt [unclear]  To 3 packs CG of 2 pcs each     Start     1781
D is 6 pcs Russia Duck [unclear]  9..20 - -      14 . 2 . 6     4 m 11
Matts recognition  etc at Marstrand
[unclear]  the Gottenburg Capt Claghorn     8 - WI
BG 18 - 1 Sheeted Chest. -
Original No 1474 - Gross 225 - 54 No 171
19... 1 do     1475     213     159
23     1 do     1479     220     166
27     1 do     1395     217     163
4 half Chests Bohea Tea     1659
Deduct [unclear]  of Chest No 19     24
Rem     635
a 2d     52.18.4
Commissions hereon - 2/2/[unclear: 16?] - 1.15.2

    69.4


Neat proceeds 3 Casks Tobacco on acct Whitlesey & Hubbard as [unclear]  Henry Greig's Acct  Sales Copy hefreto annexed - 16.17
P&C - By Neat proceeds 10 Casks Tobacco on Acct for Parsons & Cooly of Springfield [unclear]  
Greigs acct Sales annexed - 52.7
69.4
Bedford in Dartmouth
HM 11.1781
### page 32
Recd. Middletown Apl. 12th 1781 of Chy Whittelsey unclear one hundred fifty three pounds four Shillings Contl. Money in full for ballance due to Town of Danbury on Cloathing Acct.
Zadock Benedict
### page 33
Recd
Town of Danbury
April 12th 1781
E
### page 34
Bedford Dartmouth, 13th of 4 mt.? 1785
Respected Friends 
Whittelsey & Hubbard
By the Gottenburg Capt. Claghorn from Sweden, I have received acct Sales of some Tobacco which I ship'd by him and consign'd to my Friend Henry Greig of Gottenburg together with a parcel of 13 Casks of yours with 10 Casks of Parsons & Cooly of Springfield.   I have received acct. sales of mine & yours & yours I inclose with that of Parsons & Cooly - together with your acct. with me on that Adventure - which was cosign'd to me with mine - it is a poor price for Tobacco in Europe, but New England Tobacco even of the best quality will not answer at that market, indeed nothing short of best kind of Virginia - and my friend writes me he was very sorry it was so poor - , By your acct you will see what I have for you , and strikethrough: which I request your directions therein of which I must do with your Good, by first opportunity, as also directions from Parsons & Cooly, who I beg you will inform hereof - in the mean while remain
Your Friend 
Caleb Greene
### page 35
To
Whittlesey & Hubbard
Hartford
or
Middletown
Caleb Green Letter
April 13th 1781
various calculations in margin
### page 36
Recd. Middletown Aprl. 19th 1781 of Chy Whittesley sundry Pay Table Orders amounting to one hundred forty five pounds for one Hhd. sugar to be delivered at Norwich at ten pounds pr. Hundred, in Case the order cannot be negotiated to be returned. 
Sam Woodridge
£145
### page 37
Recd. S. Woodbridge
145£
Apl. 19th 1781
### page 38
East Windsor May 8th 1781
Sir
I have lately received a letter from you which acquaints me that you have converced with W. Hubbard and other gentlemen concerning the Hatts which I sent you I am very Sorry that they did not answer your expectation, was I it in my power as it is strikethrough: most agreeable to you I should pay you to the valley? of what I received for the hatts, but as I have bin building what money I had is spent that way and therefore I must do as I can, I request you to except of all of these but those made of the coarse wool, which I think you agreed to when I was at your store as to those of the coarse kind I leave it with your generosity to do the best you can with them, as to the strikethrough: (unclear) of the trimmings they are none others than the same kind of which you have ever had of me when there was no fault found with them I think it harde or me to deduct one quarter from the value of these to have them pass but necessity obliges me to leave them because I am not able to redeem them, I intend the others shall answer your expectation I did never intend the unclear should suffer by me but was deceived by my workemen as I have told you before neither do I yet mean that they shall if it is in my power consistent with reason to satisfy them. 
I am your Humble Servant
Noah Welles
W. Chauncey Whittelsey
Middletown
### page 39
Mr Chauncey Whittlesey
Middletown
Noah Welles Letter
May 8th 1781
concerning hatts
### page 40
Jabez Hamlin Esq Judge of the Court of Probate for the District of Middletown in the State of Connecticutt in New England holding said Court to Deacn. Chauncey Whittelsey of said Middletown. Greeting -- whereas the Country Court in and for the County of Hartford on the First Tuesday of Feby last did sentence judge and Decree the Estate Real & Personal of James Jauncey Esq of New York Lying and Being in the State of Connecticutt to be forfeit to & for the use of said State of Connecticutt and to be used and administered on according to one Certain Statute of said State Entitled an Act for Confiscating the Estates of Persons Inimical to the Independence and Liberties of the united States within this State and for payment of their debts and Divesting Proceeding therein and being Desirous that said estate both Real & Personal should be administered Accrdg to Law. 
I do therefore Trusting in your Fidelity & Care Commit unto you the said Chauncey Whittelsey full Power of Administration the Goods, Chattels, Credits & Estate of the said James Jauncey Esq According to Law. and to pay all Debts, in which he stood Bound in this State so far as his Good, Chattels & Estate can Extend according to the Value thereof and to make a true & perfect Inventory of all and Singular Goods, Chattels, Credits and Estate of the said James Jauncey, and Exhibit the Same into the Registry of the said Court of Probate within Twenty Days, after the date hereof and also render to the said Court a true & Plain Acct. of your administration within One Year from the Date hereof and I do by these presents ordain depute & constitute you Administrator of all and Singular the Goods, Chattels & Estate aforesaid, In Witness whereof I have Caused the Clerk of sd. Court to Sign these presents and fix the seal of said office thereto this 7th day of May ADom 1785
Sign'd pr Order. 
Test. Bezaleel Fisk Clerk
Jabez Hamllin
### page 41
Litd.? Adme. strikethrough: ? Gardner Estate of James Jauncey
### page 42
We the subscribers appointed to apprize the half of seventy acres of land late the property of David Cook and deeded by him to James Jauncy & John Smith Esqr of New York now in the possetion of Theophilus Merriman. Do apprize the sd half including one quarter of the house belonging to sd Jauncy at £122 - 10 - 0 lawfull money certified pr us, {Caleb Cook
Miles Johnson} apprizers under oath. 
Wallingford June 2, 1787
### page 43
Appraisment
Cook Lot
### page 44
Bedford in Dartmo. unclear 25.1791
Respected Friend
Chauncey WhittelseyAgreeable to the direction and order of Whittelsey & Hubbard I have ship'd by the bearer William Akin four half chests of Tea & three matts Duck as by rect. inclosed I hope the Goods may get safe to hand. I think the Tea is very good. - and as I have Twenty four pounds (good weight) due me out of box unclear 19. and thinking it would damage the box to open it, considering it must be transported, I therefore have let it go with the rest, and must beg the favour of thy delivering it to the bearer Wm. Akin having given him my order therefore, I have also given sd. Akin the acct. of charges amounting to 21/.? which thou will please to discharge  he having paid me
I am thy Respectful
& Assured Friend
Caleb Greene
P.S. I said good weight because by the allowance of Large Fare as Gottenb ye? the Tea will overun here
### page 45
Chauncey Whittelsey
Merchant
Middletown
Connecticut.
Caleb Green's Letter June 6th 1781
### page 46
6.8.2
Recd. of Chauncy Whittlesey Esqr June 30, 1781. Two hundred pounds  for one eight of the Brign. Three Sisters now laying at Middletown, with all her Appertenances, & sd. Whittlesey to be accountable for his 1/8th of strikethrough: unclear Expences since sd Brig has been as Middletown
Edward Hallam & Co
### page 47
Bill Sale
Brig 3d. Sister
from E. Hallam & Co
June 30th 1781
Entered
### page 48
Whittlesey & Hubbard to Caleb Greene Dr.
1781
4 mt. To Cash paid Carting & Storing Tea & Duck 0.4

            Do.          Storage of Do. 2 months          .5

6 mt. To  Do.         Carting down to the boat          .4.

                           Nailing &c the Chests Tea        .2.
                           Shipping & bills Lading             .6.
                                                  hard money  £ 1.1.

Pay the Contents to Wm. Akin
value receiv'd of him
Caleb Greene
### page 49
Wm Akin
Caleb Green's
Acct of Expenses
W & H. P. & C
July 1781
### page 50
Bedford. unclear 26. 1781
Please to deliver to Capt. William Akin on order Twenty four pounds good weight of Bohea Tea out of the half chest No.19. sent by him and his rect. will discharge thee from
Thy Friend
Caleb Greene
To Chauncey Whittelsey
Middletown
### page 51
Caleb Green's order for 24 # Tea
July 1781
Recd the with? in full pr me Wm Akin
### page 52
Recd. Middletown July 12th 1781 of Chy Whittelsey two half Chests Tea & two Matts Duck, the Property of Mapes? Persons & Coolly of Springfield, to be delivered to Mr. George Merrils of Hartford, he paying freight for the same one hard Dollar; Danger of the River excepted, having signed duplicate Recits
Pr Wm Akin
### page 53
Wm Akin's
Rect.
July 1781
### page 54
For Value recd. I Increase Morely of Woodbury promise to pay unto Chauncey Whittelsey of Middletown, Administrator on the Estate of James Jauncey Esqr. declared forfeit; the Sum of three hundred Pounds Lawful Money in twelve Months from the Date, with Lawful Interest until paid As Witness my hand at Middletown this 13th Day of July AD 1781- 
Increase Moseley
In Presence of Willm. Van  [unclear; D] [unclear]
[unlcear; Elentheo?] Dana? David?
### page 55
Note from
Increase Morely Esq. 
to 
Estate of James Jauncey Esq.
£306?
July 13th 1781
### page 56
We the Subscribers being desired to appraise certain piece of Land in the Town of New Haven that did belong to James Jauncey Decd. that lyes near the dwelling house of Michael Baldwin which contains three Quarters of an acre and four rods, being  Sworn according to Law, having viewed the Land do appraise the Same at the Sum of Forty Pounds Lawfull money
James Gilbert
Joel Gilbert
appraisers
New Haven
July 21 1781
### page 57
Appraisment
Lot of New Haven
### page 58
Hartford Septr. 28th 1781
Sir
Please to deliver the bearer Capt. Ingraham Twenty tlo? Salt - I am Sir yr. Very Hm Sr
Geo. Merrills
Chauncey Whittlesey Esqr
Middletown
### page 59
Recd. Middletown Spet 29th 1781 of Chy Whittelsey twenty cask? salt containing as pr. Marks? two hundred & fifty four & onhalf Bushels to be delivered to Mr. Geo. Merrils at Nortford also one half Chest of Tea to be delivered the same, on Acct. Messrs Persons & Cooley Springfield, he? paying freight accustomed have signed duplicate Rects
Br John Ingraham
Order G. Merrils
for Salt
Sept. 1781
E
### page 60
New Haven October 1 1781
Sir
Yours pr Capt Vanduson? have Recd. & Noted the contents - am Surprisd to hear that you have not recd. the Hollow Ware as it has been at Hartford in the Care of Ebenezer Barned Junr. more than a Month who had orders to Send it Immediately to you - If you have an Opprtunity I wish you to Send and order for for [sic] it as I wish you to have it as Soon as posable and Shall be Willing to do what is Reasonable on the Subject - Inclosd is an Order on strikethrough: unclear Mr. Hobby? for twenty dollars. as he has Effects of ours in his hands. I have orderd him to pay you ten Dollars More as Soon as he shall Receive'd It - which If insuficient for our part in Cash - you will informe us. I Shall this day write Mr. Bates on the Subject of Lumbrr. &c? - and know what quantity he is like to procure - we have Som Ship? damaged Bread which we Would Wish to turne in I wish to know what quantity you will Want which we Can Delivr at New London also shall Order Shot Agreable to the Memorandum of Capt. Vanduron to be left? at Edwd Hallam of N London
### page 61
Chauncy Whittlecy Esqr
Middletown
Austin's Letter
Octr 1st 1789
### page 62
New London Octo 2 1781
Dear Sir,
Twice I attempted to come and Settle the Hunters Accots, the first time I carryd. the accots. to Midddletown in order for Settlements, but was obliged to return immediately back on acct. of some Business that was urgent; occasiond by the fire
The next time meeting Mr. Hallam on the Road of East Haddam, was obliged to return- as I am extremely anxious to have the Accots. Instantly closed, being exceedingly in want of all the cash that may be due us, must beg the particular favour of you (as my Brother is Sick & it will be very inconvenient for me to leave home) - if you will assist my Brother George in adjusting the Accots. with Mr. Merrills; shall most willingly make you any satisfaction for the time & trouble - our disagreable Situation at this place makes it more necessary to close all out Accots. - if any
### page 63
Ballance should be due from yourself you will take care to stop a full suffiency for out fitts of Brign. three sisters - please to Acquaint Mr. Merrills of the Day you will attend on it, & after Settlement be kind enough to acquaint my Brother who to call on (if any) for some Cash - could you Assist him in Jogging them to pay me you would exceedingly oblige me
hope it will not be inconvenient for you to Attend on this Matter; were it not for our present Situation would not give you the Trouble - shall strikethrough: most a? most chearfully make you any allowance for your trouble & kind assistance
I am Sir with respect & Esteem
your Hbl Servt
Edward Hallam
Chauncy Whittlesey Esq
### page 64
Chauncy Whittlesey Esqr
Middletown
Edward Hallams
Letter Octr. 2d 1781
### page 65
New Haven Octo. 5th 1781
Dear Sir
Your last of the 1st Inst. was duly handed?, & Note the Contents - The Tea we have on hand & will forward it on to you by first Conveyance, which Expect will be about the Middle of Next Week as our intentions are to send a Team for some rigging? about that time - 1/2? a Ton ship bread we will ship as soon as any opportunity Invites for N London & consign the same to Mr. Hallam Agreeable to your request - have To request you to Write us what time we may have the Horse? ready to ship in the Big? Bay?? we are
Sir with the Sentiments of Esteem
Yr. Hbl. Servt Wm Helms & Co
### page 66
Mr. Chauncy Whittelsey
[[Hond. by Miss Mansfield
Merchs.
Middletown
Letter
William Helms & Co
Octr 5th 1781
### page 67
New Haven Octr. 17 1781, Recd. of Mr. Chauncy Whittlesey of Middletown by the hands of Capt: Sindarson? three Dollr: due to me for Searching Records & praivsing? Land & c relating to the Estate of James Jauncey
Sam Bishop
### page 68
Recd No. 1
Samll Bishop
in margin: Take it
calculations in margin
### page 69
1780 Middletown Novb 27th
This May Satisfy that I have Recd of Chauncey Whittelsey Nine Pounds Lawfull Money in Full For one Half Share of all the Prize or Prizes that shall be Capterd By the Briguntene Lady Green strikethrough: during ? Joseph Smith Commander during said Cruse according to said articles that I have all Ready Signed Which is Not to Exceed Fore Months
as Witness My hand Noah Higbe
### page 70
half Share
Bot of Noah Higby
### page 71
Dr. Chauncy Whittlesey in Acco. with Edw Hallam & Co - CB
1781 Aug.  Lo our Obligation     £100 ~
Octo.  Lo 108 Gal. Rum [unclear]     32~8~

    Lo 416 Outfitts Ship Hunter     [unclear].19
    Lo Mo Humphreys Bill     100~
    Lo Joseph Kings order     23.10
         £ 773"17~

1781 July LBy 100 State Money     £ 33.6.8
By Pay Table Order for £100. for [unclear]     100.0.0
By Jones & Tucker     [unclear]
By £112.10 - rec'd of Austins     33.6.8
By £100... for Ship Hunter     25~
B y Cash [unclear] Capt. Warner     32.8
By 133 of Capt Fairchild     33.5
By R Hamlin, [unclear]     2.5
By of [unclear] Rum 390 Gals     97.10
By Ball. Due May for B9 Resolution     34.3.1
By Molasses Sugar of Hunter     13.1.6
By Pork & Vinegar Ship Hunter     11.10
By Cash     42.16
By 227 Gall. Rum 6/6     71.13.6
By 350. State [unclear] for     58.6.8
By 2 Tunns Ware     66.13.4
By 1 Horse £15 in Cash 46     21.
By 4743 feet board £4.10     22.15.6
By Ball. car. to Dr. his New acct     73.16.1
New London Dec. 9. 1781 
Errors Excepted [unclear] Edw Hallam & Co     £773"17"0
### page 72
Acct
Ed Hallam & Co
Entered
Decr. 1781
### page 73
Chauncey Whittlesey to Jonth Taylor    D
1781
March   To trucking, Hhd     0..2..0
3 Hhd Rum     6..0
6 Hhd [unclear]    3..0
Heading, BU     0..6
Apl     3 BU [unclear]     1..0 
Trucking Sand     2..0
Trucking a Load Grain     2..0
To 2 BU & Trucking     13..0
Trucking a Load flower     2..0
Do. 2 Loads Potatoes     4..0

         1..17..6

May     To Trucking 1 Load Shad     2..0
Do. 1 Load Sugar     2..0
Do. 1 Hhd Rum     2..0
Do. 2 Load flower     4..0
Do. 1 Hhd Salt     2..0
Do. 1 Hhd Molasses     2..0
June     Do. 2 Load     4..0
Do. 2 Load     4..0
Do. 1 Do.    2..0
Do. 1 Do.    2..0
Do. 1 Hhd & [unclear]     4..8
Do. 1 Hhd Rum     2..0
To 5 [unclear]     1..8
To Trucking 2 Casks & 6 hogs     3..10
To 3 Hhd [unclear]     1..6
July     To Trucking, 1Hhd Sugar     4..0
To D    2 Hds Molasses     4..0
To 7 Hhd [unclear]     3..5
To Trucking 1 Load tea     2.0

         2..13..2

To Do 1 Load Iron     2..0
To 13 BU [unclear]     4..4
To Trucking 1 Load Beefes     2..0
To Do.1 Hhd Sand     2..0
To Do. 1 BU Beef     0..9
Sept     To trucking 3Hhds Rum     6..0
To 2 Hhd [unclear]     2..0
To trucking 1 Load     2..0
To 20 Hhd [unclear]     1..0..0
To trucking 1 Load     2..0
To do 1 do     2..0
To Do 1 Hhd Molasses     2..0
To Do 1 Hhd do     2..0
To Do. Paint     1..0
To 1 BU     6..0
To trucking 1 Hhd Salt     2..0

         2..18..1

carried over £7..8..9
### page 74
Sum brot over     £7..8..9
Nov.     To heading 2 BU     0..1..0
6 [unclear]      2..0
1 Load Cask     1..6
3 new BU     16..0
9 BU [unclear] & 1 new head    4..0
heading 6 BU Pork     3..0
6 [unclear]     2..0
Setting 2 Hhd [unclear]     2..0
Dec. 19th.     3 BU     10..0
heading 2 BU     1..6

         2..11..0
         £9..19..9

Rec'd. the above in full this 19th day of Dec. 1781 by a Credit on his Bank
B Jon a Taylor
Bill Jonthen Taylor
C. Whittelsey
Dec. 19 - 1781.
### page 75
Boston Januy 12th. 1782
Sir
I wrote you about three months Since by Peter Colt Esqr. but have not been underlined: even favor'd with an Answer
I think before this time you must be Sensible that you have done me a great Injury in keeping me out of the ballance of my Acct. ten or Eleven months, all which, was Cash Advanced, in order to have your Goods carried on at a low Rate - The Damage to me is more than the whole Commission on the Purchase was worth, besides all the trouble I was at
It is needless to keep pointing out disappointments - You know the ballance that is due to me, and that it ought to have been paid long Since by your Engagements to me. I must therefore Once more Entreat you immediately
on
### page 76
on Receipt of this to Remitt me the ballance agreeable to your Invoice to me
I am Sir
Your much injured
Friend & Hble Ser
Charles Miller
Charles Miller Esqr
Jany 12th 1782
Chauncey Whittelsey Esqr
### page 77
Boston Feby 5. 1782
Sir
Your favor of 26th ulto. Inclosing a Bill for Eleven hundred Livers? came Safe to hand and is very Agreeable
I wrote you 12th ulto. and forwarded it by Post, the Receipt of which you do not Acknowledge -
I am very much disappointed in not having the whole ballance Remitted me long before this - had? I have given up One third of the Debt? ten months Since in order to have Received the other two thirds, I shoud have been a gainer? - The damage to me is much greater than you can conceive, or ever will be willing to make Good. I must therefore desire you to Remitt me the ballance on Receipt of this -
I am Sir
Your most Obd. Ser
Charles Miller
Chauncey Whittelsey Esqr
### page 78
Charles Miller Esqr.
Feby 5th 1782
### page 79
Do Chauncey Whittelsey Esq in Acct current with Charles Millen  Cn
1781 January To 131 Casks Containing 1566 Bushells Rock Salt at L 50 10/& Barels of Casks 79,083 March To Cash ? Daniel Parker g taken? up your Note hand 25,765--
To account of Charges of Transportation of Rum & sillages? --37285-5 N.B.? of ? L in Acct Expenses  ? 142,133.5..
1781 January By Cash Recd in payment of your Note and on Account---51.550--
By ditto for Sett of Exchange drawn by Mr ? for 24000 Livers? at 53 for One is ---72.686.14
August 2 By Sett of Exchange for 3200 Livers is L182.17/ at 55 for One---10.056..15-
July? 1 By Sett of Exchange for 1100 Livers in L62.17?  at 55 for One is ---3,456.15-
April 11 By Ballance due to Cha Miller L 137750.4-
to be paid on Bills of Exchange at fifty five for One ---4383..1
By Cash Recd of Sam Elliot for his Note hand---25..11.10
By a draft on Daniel Bigelow for ---18.....
43..11..10
By an allowance on Cash in Lieu of Bills---4..7-
47..18..10
By Error in Act Expenses ? 55 for 1 is ---7..3
By Error in allowance of Cash in Lieu of Bill - 9..10
By 2 Months interest on Eliot Note in Bill--5? 

1782
April To ? To Charles Miller  L4383.1/ To  ? paid in Bills Exch.at 55 for One is ---79..13..4
### page 80
Norton April 18. 1782
Sir
Your favor of 2d. Instant, I duly Reced and Note the Contents - I must Acknowledge the Mistake Respecting the ballance due me
I now Inclose you your Acct current, ballance due to me in Bills of Exchange Thirty One pounds fourteen Shillings & Sixpence. I have not charged any Interest or damages, shall strikethrough: illegible leave that alowance intirely with you - I have Credited you 10 unclear between Cash and Bills, which is the difference they Sell at here. I have also inclosed you the order on Mr Elliott, as its uncertain when it will be paid, and he says it will not be more than Seven pounds
I am Sir
your most Obd Ser
Charles Miller
Chauncey Whittelsey Esqr
### page 81
Letter & Acct
Charles Miller Esqr
April 18th 1782
### page 82
To all people to whom these presents shall come Greetings
Know ye that whereas the General Assembly of the Governor & Company of the State of Connecticut holden at Hartford  by Adjournment on the tenth day of January 1782 made & passed the following Resolve & decree viz. 
At a General Assembly of the Governor & Company of the State of Connecticut holden at Hartford by Adjournment on the tenth day of January 1782
Upon the Petition of [Chauncey Whittelsey of Middletown in the County of Hartford Administrator on the Confiscated Estate of James Jauncey of the City of New York Shewing to this assembly that said Jauncey having large demands upon Joshua Chandler late of sd New Haven now with the Enemies of the United States. Said Jauncey made a full Settlement with said Chandler of all demands & put Sundry Notes given by sd Chandler to said Jauncey to the Amount of about £1500- Lawful money into the Hands of Charles Chauncey of New Haven in New Haven County to deliver up to said Chandler upon said Chandler's conveying to said Jauncey Two Peices of Land in the Parish of Meridan & Town of Wallingford lately belonging to Yale Bishop of sd Wallingford  being about Eighty Eight Acres and also one other peice in said Wallingford containing about Thirty Acres lately belonging to Benjamin Culver which Peices of Land it was agreed between said Jauncey & Chandler should be in full of sd. Notes. And said Chandler on the 5th Day of March 1779 made & executed to said Charles Chauncey his certain Bond for the Sum of £40.000- Lawful Money for the Benefit of said Jauncey conditioned that if sd. Chandler his Heirs or Assigns should be by a good Authentic Deed convey to said Chauncey his Heirs & Assigns three certain Peices of Land in the Township of Wallingford Two Peices in the Parish of Meridan commonly called The Stone House, One Peice containing Eighty Acres and the other about Eight being the whole he bought of Yale Bishop by a deed recorded Lib-18th Fol-69 reference thereto being had. Also the other of said Peices which lieth in the Old Society being the Homestead bought of Benjamin Culver containing about Thirty Acres with all the Buildings thereon which Land bought of sd. Culver is bounded & described in said Deed recorded Lib. 16th. Fol. 221 reference thereto being had which Deed was to be with Covenant of Warranty strikethrough: which then sd Bond to be void as by sd Bond appears. Which said bond never having been paid
### page 83
nor any Deed given to sd. Chauncey and said Chauncey being appointed Administrator on his Estate and said Jauncey now being with the said Enemies and his Estate adjudged forfeited to the State of Connecticut and the Petitioner appointed Administrator Thereon praying this Assembly to Decree that said Peices of Land which the said Chandler bound himself to convey to said Chauncey for the Benefit of said Jauncey - may be conveyed to said strikethrough: Jauncey Chauncey Whittlesey as Administrator as aforesd for the Use & Benefit of the State of Connecticut or in some other way grant Relief as pr. Petition on File
Resolved by this Assembly that the several parcels or pieces of Land above mentioned & described with the Buildings thereon Standing be maid over & conveyed unto the said Chauncey Whittlesey as administrator upon the strikethrough: Estate confiscated Estate of the sd James Jauncey for the use & Benefit of the State of Connecticut & the sd Whittlesey in his sd Capacity be vested with full right & Title to the same. And the said Charles Chauncey administrator on the confiscated Estate of Joshua Chandler now with the Enemies of the United States, shall & do make & execute unto the sd Chauncey Whittlesey Administrator as aforesaid, a good authentic deed of conveyance & release of all sd Chandler's right, title & Interest to all the above mentioned Pieces of Land with the Buildings thereon Standing, viz Two Pieces of land in the township of Wallingford & parish of Meriden commonly called the Stone House, one piece containing about eighty acres & the other about eight acres being the whole sd Chandler bought of Yale Bishop by a deed recorded Lib 18 Fol. 69 reference being thereto had, the other of sd piece of Land bought of strikethrough: sd Culver Benjamin Culver, containing about Thirty Acres which land bought of sd Culver is bounded & described in his deed Lib 16 Fol. 221 reference thereto being had, on or before the first day of May next, or in default thereof forfeit & pay unto the Treasury of this State the sum of Two Thousand Pounds Lawful Money, & upon his the sd Chauncey's so making & executing unto said Whittelsey, a good authentic deed of conveyance & release of Said pieces of land in manner aforesaid, the above mentioned Bond executed by said Chandler to said Chauncey shall be void & of no effect. I the said Charles Chauncey do therefore in pursuance of sd. Order & Decree as Administrator upon the Estate of sd Chandler give grant remise release & forever Quitclaim to the said Chauncey Whittlesey as Administrator as aforesd the said three Peices or Parcells of Land before mentioned & described and all Right &
### page 84
Title which said Chandler had thereunto for the Use & Benefit of the State of Connecticut forever, and After the ensealing of these Presents, I will have no Claim Challenge or demand thereto but from the same by these Presents will be forever barred
In Testimony whereof I have hereunto set my Hand & Seal this 19th Day of April AD 1782
Signed Sealed & delivered
In presence of
John Williams
Wm. Jos Whiting
Charles Chauncey
Admr. on the Estate of Joshua Chandler
New Haven County Ls.? New Haven Apl. 19th 1782
Personally appeared Charles Chauncey Esqr of New Haven in New Haven County Signer & Sealer of the foregoing Instrument & acknowledged the Same to be his free Act & Deed.
Before me -
Timothy Jones Just. Pacis
### page 85
Charles Chaunceys Deed to
Chauncey Whittlesey
Received to Record
April 20 1782
and Recorded Lib. 22
Folio 440:441
pr Caleb Hall Clerk
When this page was scanned, it was laid over the second page of the deed, 195/44501, the bottom of which is visible in the scan
of Said pieces of land in page is folded
executed by said Chandler to said Chauncey shall be void & of no effect. I the said Charles Chauncey do therefore in pursuance of sd. Order & Decree as Administrator upon the Estate of sd Chandler give grant remise release & forever Quitclaim to the said Chauncey Whittlesey as Administrator as aforesd the said three Peices or Parcells of Land before mentioned & described and all Right &
### page 86
Sr
Please to pay Chauncey Whittelsey Two Pounds seven Shillings & seven pence Lawful Money & it shall be in full of acct from
Your's &c
Benjamin Cook
Middletown Apl. 22d. 1782
Lieut: Othniel Clark present
### page 87
Order
B. Cook junr.
on Lt. O. Clark
£2..7..7..
Entered
### page 88
Woodbury May the 1th? 1782
M. Chancy Whitelsey Sir I Am Dissapointed of My Paper at Presente But I Hoope It Will Noote Be Many Dayes Before It Comes on and I Will Send It as Soone as Possible after It Comes to Me and If? It finaly unclear I flatter Myself I Shall Be Abl to Pay you your Mony from your H St Jabez Bacon
### page 89
Letter
Jabez Bacon
Woodbury May 1st
1782
To Mr
Chancy Whittelsey
Marchante at Mideltown
### page 90
We the Subscribers freeholders of the Town of Wallingford being appointed and at the Request of Mr. Chauncy Whittlesey of Middletown in Hartford County Administrator on the Estate of James Jauncey Esq of the City of New York have Apprised about thirty Acres of Land Lying in said Wallingford the Homestead Formerly Benjamin Culver with a Dwelling house on the Same now belonging to the Estate of said James Jauncey Esqr.
the Homestead about 30 Acres damaged    £120:0:0
the Dwelling house Standing thereon                   25:0:0

                                                                       £145:0 0

Apprised pr. us
Caleb Cook
Miles Johnson
{apprizers under Oath}
Wallingford July 12 1782
### page 91
Appraisment
Culver Lot
### page 92
Dor? Pr? Chauncey Whittelsey
1782
April {To Ballance of Old Account to be 
paid in Bills of Exchange}                             79..13..4
July 26 {To Interest on Cash Advanced for
the Transportation of Rum & Salt
in march 1781}                                                   11..3-

                                                                 £90..16..4

Boston July 26th 1782
Error? Excepted
Charles Miller
### page 93No transcription.
### page 94
Acct. ballanced
Charles Miller
Augt. 3d. 1782
Entered
### page 95
Dear Sir
I Recd. yours of The 11 Instant by Mr. Hall of which I note the contents
With much dificulty I have promised 6. 0. 7 iron which I wish Safe to hand the Iron I purchased with Cash and have agreed with a man to take aborill? rum and pay me the Cash for it which will replace the money for the Iron: the season being so Dry hath made Iron very scarce: it is assent? att 36/ damaged: least? in hand: which makes it Dificult to Exchange your goods for Iron att present: as money is scarce: the Sale will be Slow but you may Depend I shall pay particular attention to the matter and dispose of the Rum and Sugar to the best advantage and as soon as possible: I have sent 1 tbl.? sugar to New concord with a Trusty hand who will be able to Exchange it for wheat: and the wheat will Fetch the Iron Imediately here: or I can flour? the wheat and send you if agreable for which I shall wait your Orders
am yr. Hl Servt. Giles Hamlin
Cancan? Sept. 18 1782
NB. there was a Loss in one lebl.? Sugar which Mr. Hall can acquaint you with the circumstances the Loss 3.14 G.H?
G.H
### page 96
Letter
Giles Hamlin
Septr. 18th 1782
Mr. Chansey Whittelsey
Midletown
### page 97
New Haven Sept 19th: 1782
Sir
Inclosed I send you back the Inscription for the tomb stone, as you Returnd it to me, Mrs: Chester Being unwilling to have any alteration made, I should be much Oblidge to you to have it Stone made large Anuff to Contain the whole Epitaph, let the Cost be what it may
I am Sir your most
Huml. Sert
Jonas Prentice
### page 98
Capt. Prentice's Letter Sept. 19th 1782
### page 99
Received Middletown Octr. 16th 1782 of Chauncey Whittelsey, Administrator on the confiscated Estate of James Jauncey, Ninety six Pounds Lawful Money in full for all Demands on sd. Estate agreeable to the Report of the Commisioners on the same
pr. Ephraim Rose
£96.
### page 100
Recd. Ephraim unclear for James Jauncey's Estate
### page 101
Recd. Middletown Octr. 17th 1782 of Chauncey Whittelsey Administrator on the confiscated Estate of James Jauncey thirteen Pounds & nine pence Lawful Money, being the full Sum found due to the Estate of Titus Hosmer Esqr deceased, by Commisioners on estate of Jauncey
pr Lydia Hosmer Admr. on Estate of T Hosmer
### page 102
Lydia Hosmer
Recd
### page 103
At a general Assembly of the Govr and Company of the State of Connecticut holden at Hartford by special Order of the Govr on the 8th Day of January Anno Dom. 1783
Upon the Memorial of Chauncy Whittlesey of Middletown Administrator to the Confiscated Estate of James Jauncey Late of the City of New york, Shewing to this assembly that he recovered Judgement against Josiah Starr of Middletown for the Surendry of his house and homestead, upon a Mortgage from Said Starr to Said Jauncey, Since which Said hath paid up Said Mortgage and Cost of Suit, to the memorialist, and no way is oppointed by Law, by which Said Starr can obtain a proper Deed to discharge the aforesaid Mortgage and Judgement of Court, praying for Authority to Execute a Deed of Release of Said Mortgage Premises & as pr Memorial on file
Resolved by this assembly that the Memorialist be and he is hereby impowered to reconvey Said Mortgaged Estate unto Said Starr and for that Purpose to Execute a Deed of Release thereof, which being compleated, Said Starr Shall be fully and Compleatly in intitled to Said Mortgaged Estate as though the Same had never been Mortgaged unto Said James Jauncey
Above Copy of Record Examend
By George Wylly's Junr
### page 104
Chauncy Whittlseys Order from G. Assembly pd? 4/5 for Deed to Josiah Starr
### page 105
and on the 25th Day of January 1783 then by Virtue of this Execution I took? a Certain peice of Land as the Estate of Daniel Clark Decd. contains 15 Acres 76 rods of Land bounds North on Highway East and and [sic] South on John Hendrick and West on Noah Yale their Land at the North by Highway 46 rods 12 1/2 Links at the South 46 rods, 5 1/2 Links at the strikethrough: East East 60 rods at the west 46 rods 5 1/2 Links
also one other peice of Land on the plain 9 Acres one half North Line 46 rods South Line 44 rods 7 Links West Line on the Country Rode and the East Line 33 rods 20 1/2 Links bound North on John Hull East on John Hendrick South on the heir of said Decd. Clark Daniel their Land their Land [sic] and West on the Country road and on the 25 of January Inst. I applied to Caleb Hall Esqr. to Appoint apprises and he appointed Capt. Stephen Andrews and Archabel Clark appointed Mr. Elihu Hall Jur. and the Plt.? Mr. Chauncy Whittlesey appointed Capt. Miles Johnson all Freeholders of said Town being under Oath as the Law Directs we did apprise the first peice of Land 15 Acres 76 rods of Land at £5:5:0 pr Acre Lawfull money also we Did apprise the other peice Nine Acres and half at £2 5.0 pr. Acre
pr {Stephen Andrews
Elihu Hall Jur.
Miles Johnson} Apprisers
in margin: Eighty four pounds & ten pence
15 Acres 76 Rods - @ 105/. - 81..4..11

 9 1/2 do. 45/-                       21..7.. 6
                                         £102..12..5

in margin: miscellaneous calculations
### page 106
Minutes of Exr
re
Clark
### page 107
at the Request of Chancy Whittelsey Esq. I went to the House & Land where Leut. Benjamin Culver Now Lives and Surveyed a piece of Confiscated Land belonged to James Jauncey and find the Same to Contain 14 acres and three Quarters of an acre of Land Sd.? Service performed on the 10th of April 1783 being assisted with Chain Men Sworn according to Law
Test Giles Hall New Haven County Sur.re?
Recd. Wallingford Ap: 15th 1783 of Chy Whittelsey Admr. and confiscated Estate of James Jauncey sixteen Shillings in full for Healeans? Service of myself & Chain Men pr Giles Hall
### page 108
No. 2
Giles Hall's
Recd
### page 109
Recd. Middletown Aprl. 29th 1783 of Chy Whittelsey Eighteen Pounds ten Shillings & 1 d. in full for my Fees & cost of Appraisment & s? on an Exr.? in his favour as Administrator to Estate of James Jauncey for the Surrendry of Sundry Pieces of Land heretofore belonging to the Estate of Danl. Clark deceased & for Damages & cost of Suit.
Pr Eliakim Hall Jr
£18..10..1
### page 110
No. 3
Elakim Hall's Rect.
strikethrough/damaged
E
### page 111
Dear Sir,
have sent you {6..2..0
1 unclear    1..2. 9} unclear totall W. 8..0..9
Containing Twenty Six unclear all which I wish safe to hand: if you should want a Quantity of Iron you may send Moris? for any Quantity between Ten & Twenty Pounds the Iron will be ready strikethrough: I sent the money for the cost ? if the waggonor should want a Little Expense money Let him have some: I want some Loaf & brown sugar Such Quantity as the waggonor can bring not Exceeding £2.0:0 and Let half the 15? be Loaf Sugar
Shall be Down not Long for it will make a Settlement with you: your orders repecting more Iron will be adheard to am yr. H Servt.
Giles Hamlin
Canaan June 12 1783
Mr. Chansey Whittlesey
NB. Send me 20H codfish
Should have beginning? the list? last? my waggoner faild
### page 112
Letter &n order
Giles Hamlin
June 1783
Mr. Chansey Whittlesey
Middletown
Recd. three Dollars on the within order for Expenses
Andrew Lester
### page 113
middeltown September ye 11th Ad 1783
then Received upon the with order twenty three pounds Lawfull money
Receid pr me Joseph Emmons
Recd. Middletown Apl. 14th 1785 the ballance of the within order for Mr. Samll Gates
Joseph Emmons
### page 114
Sir. Please to pay Seventy Pounds Lawful Money to Mr. Samuel Gates towards my Debt due from the Estate of James Jauncey & this receipt shall be your Discharge
New Haven Octr. 14th? 1782.
Mr. Chauncey Whittlesey
Admr. on James Jaunceys Estate
Charles Chauncey
### page 115
New York 26 Feby 1784
Dear Sir
I sent John Trumbull Esqr of Hartford sometime past a sum more than the amount of my note in your hands, for a certain purpose, the disposal of which will be determined the 6th of March next -- I will thank you to wait untill that time, & then call on Mr Trumbull, to whom I have given directions to pay the note, if he don't use the money another way, if he does I will make provision to pay you -- At same time will thank you to be indulgent as you can in point of time -- The Winter has been so severe that we have done very little business 
I will settle the note in a fair & honorable manner, and pay you the full interest that may be due thereon
I am
Dear Sir
Your Obedient Servant
Sam Broome
Mr Chauncey Whittlesey
### page 116
Letter
Samll. Broome
Febr 26th 1784
### page 117
New London Feby. 25 1784
Sir
We paid Capt. Ebeneazer Sage on your Acct. £17..16-  a Scarcity of Cash with us & sundry demands disabled us from paying him more than just enough to answer his then Demands - this we have plac'd to your Debit
we have lately recd. Messr. of Mr. Huntington strikethrough: & Fanning a bill on New Yorke for Eighty Nine Pounds Two Shillings New York Currency which he writes is the ballance -- this till we have by us which you will place to our debit -- you will add to our Cr. 12/. paid Rogers for Thompson a Sailor we are Sir your
Very Hub. Servt.
Edwd. Hallam & Co
Chauncy Whittlesey Esqr
### page 118
Ed. Hallam & Co
Febr 25th 1784
### page 119
Sales of 2 Hogheads Rum & 2 Hogsheads Sugar Received May 9th. 1724. At the Schooner Peggy. Sanford Thompson Master from  Middletown & Sold for order for Account of Wm. Chaney Whittlesey, Merchant there ?
1784
May 3rd By Elring, & Varick for 2 hh.  of Sugar.---

                                   No. 1    11 1.7
                                          2   12,0,0
                                                 23.1.7
                                       12 Fare      2.3.6
                                                                  20n2..1 Near.40/

& By Smith V Sheldon  for 2 hh Rum---

                                      109.2  
                                      114.2
                                       223.4
                                                         219 Gallons @ 3/6                               38.6.6
Charges                                                                                                         79.6.10 Pounds
                                      paid Carting Rum                          @3S     0.6.0
                                                    Gauging                            1S          2.0 
                                                   Storage                              2S       0.4.0
                                paid weighing Sugar                         2 2 wt        3.6
                          paid Duty on De a 34S pr.Cut                 2.3 Wgt      17.6
                          paid Duty on U.G. Gall. Reem. d               4 pt. gall.  3.13.0
                                  Commysheons     2S for 6S                              1.19.8
                                                                                                           7.5.8

To Your Account Current for the N. proceeds 69. - 72.1.2 of n
New York May 12th 1784                                                              79.6.10 1/2 pounds
Errors Excepted
Ben Ledyard
### page 120
miscellaneous calculations
Drew in favour unclear Miller    28.. 6..8

                       and Dunscomb    16
                                                44.. 6..8
                                                72.. 1..2/
                    Shala & Sabor? 27..14..6/
### page 121
Acct.
Benjm. Ledger
Sales 2 Nd? Sugar
& do Rum
E
### page 122
at the Request of Chancey Whittelsey Esqr. of Middletown I went to the Farm, Calld. Dunham Farm & Measured from Bound to Bound Round the Same as I was Informed and find sd. farm to Contain Ninety Eight Acres Twenty Rods
Sd. Service performed May 28th. 1784 being Assisted with Chain Men Sworn according to Law
Test Giles Hall N. Haven County Surrs
Cash Measuring & Expenses £1:16:1
### page 123
For
Chancey Whittelsey Eqr
Middletown
### page 124
Recd. of Mr. Elihu Yale Junr. of Wallingford one pound Sixteen Shillings 1d in Full for Measuring the Dunham Farms For Chancey Whittelsey Esqr
Giles Hall
Wallingford July the 1 1784
### page 125
Rect No. 5
Giles Hall
### page 126
at the Request of Capn. unclear Hall & others I Measured one Lott of Land Formerly Daniel Clarks of Wallingford Decd. for Chancy Whittelsey Esqr. Containing Sixteen acres one half acre & five Rods of Land Said service performed Octor. the 12th 1784 being assisted with Chain Men Sworn according to Law Test Giles Hall New Haven County Survre
unclear for survey plan & Measuring 13/6 to Chain Men & Expenses 7/6
To Chancy Whittesey Esqr
Middletown
### page 127
Giles Hall's Acct.
surveying Halins? Lot.
Chancy Whittelsey Esqr
Middletown
### page 128
To the Sheriff of the County of New haven or his Deputy, or either of the Constables of the Town of Wallingford within said County, Greeting.
WHEREAS James Jauncey of the City & Province of New York recovered Judgment against Theophilus Merriman of sd. Wallingford before the County Court holden at New Haven, within the County of New-Haven aforesaid, on the 2d Tuesday of Novr Anno Domini, 1773 for the Sum of £106.6.8 Debt and £1.4.9 Costs of Suit, as appears of Record : Whereof Execution remains to be done.
THESE are therefore in his Majesty's Name, to command you, that of the Goods, Chattles or Lands of the said Merriman within your Precincts, you cause to be levied (and the same being disposed of or appraised as the Law directs) paid and satisfied unto the said Jauncy the aforesaid Sums, being £107:11.5 Lawful Money, in the Whole, with One Shilling Lawful Money for this Writ, and threof also to satisfy yourself for your own Fees. And for want of such Goods, Chattles or Lands of the said Merriman to be by him shewn unto you, or found within your Precincts, to the Acceptance of the said Jauncey for the satisfying of the aforesaid Sums, you are hetreby commanded to take the Body of the said Merriman and him commit unto the Keeper of the Goal in New haven in the County aforesaid, within the said Prison, who is likewise hereby commanded to receive the said Merriman and him safely to keep until he pay unto the said Jauncy the full Sums above mentioned, and be by him released, and also to satisfy your Fees.
Hereof fail not, and make due Return of this Writ, with your Doings thereon, according to Law, viz. within sixty Days next coming. Dated at New-Haven, this 16th Day of Novr Anno Domini, 1773 And in the 14th Year of his Majesty's Reign.
John Whiting Clerk
### page 129
I promise to allow the Int. on the within Exr. from the Judgt till paid
Theops mariman
Et James Jauncey Theophs. Merriman
Recd. Middletown Octr. 25th 1784 the within Exr by order of Assembly
vz 1 Conl. Certificate 300 Dol          22..10..0

         Int on do                                   7.. 4..0
   1 State Note                                   8.. 1 ..5
        1 Year Int                                        9 ..7
    State Money including Int             69.. 7 ..5
                                                    £107..12..5

Chy Whittelsey Admr. on confiscate Estate of James Jauncey
### page 130
Sales of [unclear] Sugar at Public Auction by order of Mr. Chauncey Whittelsey
1783
Dec. 30th 
Sold James Woodhull
12ths[?] Sugar. 17. 3. 14
2,, 0,, 16  15, 2,, 2
61/ 47,, 19,, 6
Jacob Mott
10,,  16. 0. 14
1. 3. 20  14. 0. 22.
75 53. 4. 8.
Thomas Burling
10,, 18,, ,, ,,
2,, 0. 17  15. 3. 11.
70/ 55. 9. 4
Elna Hayt[?]
10 16, 1,, 0
1. 3. 22   14. 1,, 6
74/ 52. 18. 4
Theo Brown
10   15. 2. 14
1. 3. 14   13. 3. 0
69/ 47. 8. 9.
Jonathan Lawrence
10   16. 1,, 7.
1. 3. 23.   14. 1. 12.   
68/ 48. 16. 4


305. 16. 11.
Charges
Advertizing     0
Buyers fees    4
Storage         12
Weighing       18
Commissions  [illegible] 7,, 13
9. 15
N. [?] Proceeds   296. 1,, 11.
Dr Mr Chauncey Wittlesey   Contra [illegible]
To bash laid your order to Eleazor Miller. 80,,
To Do. Laid Do. to [unclear] 80,,
To Do. Laid Do. to Henry Haydock 46. 14.
To Do. Laid the [unclear] to [unclear]
Your reques       89,, 7,, 11 By W. proceeds sales 296. 1. 11
£296. 1. 11
Errors Excepted 
New York March 25th. 1784
[illegible]
### page 131
Acct.
Danl. unclear
Sack Sugar
Jany 1785
E
### page 132
Sir pay Mr Michael Baldwin the sum of seven Pounds four Shillings on account of that Sum due to me? from the Estate of James Jauncey. I am your unclear
Chauncey Whittlesey Esq
unclear Oct 4th 1785
### page 133
Order
Pierpoint Edward's Estate
James Jauncey
paid im full of his Acct
### page 134
Recd. New Haven strikethrough: Septr. Octr. 7th AD 1785 of Mr. Chauncey Whittelsey Administrator on the confiscated Estate of James Jauncey Esqr. Thirty six Pounds four Shillings Lawful Money by the hand of Mr. Benjm Cook junr. which is in full for ballance due to me from sd. Estate for Interest on an Enr.? in my fav. against sd. Administrator, as allowed by Judge of Probate.
pr Jacob Pinto
in margin: 36.40
### page 135
Jacob Pintoes
Rect. No. 6
E
### page 136
Mr. Chauncey Whittlesey Junr. New Haven 23 March 1786
Sir
Mess Broome & platt have paid me a note of yours dated 21st March 86 for £190.6.10 1/2 on which you have paid £18.- I have left it with Mr. John Glover of this place to whom you will strikethrough: pla please acknowledge receipt of this letter -- I hope you will have it in your power to pay it when due as I assure you money is what I want exceedingly
I am with great respect
Sir
Your very Hbl. Serv.
P.. Laurie
attorney to H? Lawrence
### page 137
Letter
P. Laurie
Novb 1786
Mr. Chauncey Whittlesey Junr.
Middletown
### page 138
Chauncey Whittlesey on Note to Henry Haydocke
This note payable 5 [unclear] 1786 for      88..15..4 1/2
Interest on ditto for 1..3..6     7..17..4 1/2

         96..12..9

1786
10mo 5 By an endorsement     49.15..9
By Interest on ditto for 10.2     2..18..5
Balance due HH     43..18..7

         96..12..9

August 7th 1787  Haydocks [unclear] not [unclear:  exforcing?] 
[paper torn, missing text]  [unclear]  only was said by us you therefor must [crossed out text]
[unclear]
### page 139
The Interest is just after Note become due & therefor must be paid
Chy Whittelsey
### page 140
Mr Whittelsey
Sir
If you can think of any way by which I can turn five Pounds for David Cook in the way of Business I strikethrough: can am content to you should charge me that sum
May 29th 86
Chas Chauncey
### page 141
Order
Charles Chauncey
Espird favour
David Cook
E
### page 142
Recd. Middletown June 3d. 1786 of Chy Whittelsey Admr. on Estate of James Jauncey for levying Attachment on Joel Moss & Archd. Clark in favr. of sd. Estate fifteen Shillings in full
Jonathan Collins Const.
### page 143
Rect. 7
Jonathan Collins
E
### page 144
Windham July 25. 1786
Sir
I have as yet done nothing more with Doctr. Eldisking?, oweing to there being an attachment in favour of James Flint on his house and Lot prior to yours, which lies in Court and must first be determined. The Doctr. is in a little better humour at present, though I cannot make him agree to Indorse, or apply the Certificates Mr. Whittlesey recd. in part of the Execution, there is therefore no alternative left but to Tender them, together with the cost to him, or an equivalent in hard money
If you can conveniently send me some Certificates (by Mr. Larrabe the bearer of this) for the purpose, should be glad as I have not any by me -- If the Doctr. doth not succeed in his plan of Compelling you to account for the State Note, at its value at the time you first received it, I believe Huntington will make some overtures of Settlement so as to secure an Indefeasible Fea [sic: fee] to himself, I have already had some hints of the kind from him --
My respects await Mrs. Whittlesey & family
and am yours &c
Jabez Clark
Mr. Ch.y Whittelsey
### page 145
Letter
Jabez Clark Esqr
July 25th 1786
### page 146
6  Dr   Chauncey Whittlesey Esqr. in Accd with E & A Austin Cr
To Calamin on O the Side -                  L3..6.10            By Enor in cast of Rum on the side  } L  0.5  C
To 46d ?our delivd Cap' Vandusen } 1.11.3              By  do  1 Gallon Thost in Rum delivd by Capt Vanduson }.. 4..6

  31 May 1783 ___

To 2d yd Cattelon d 12/ & tiset 10}

  Ometic from 29 Jany 83 -}                 1..10..10
                                                         _________
                                                       L  5..0.11              By Enor in Hollowware  1..5.11       

To  1  Iron pot ______                               5                   by Cash this day -          1.12.0

                                                          ________            by Note to Callany}         2.6.
                                                       L 5.13.11                Whel whin paid is in full 5..13..11
                Enors Enceptic
                Nic haoen  26th July 1786
                      Elijah Austin
               Lavivng rastn
### page 147
1783                                      Chauncey Whittelsey
Jany 19
To Hollow ware            25.3.21 @ 24/      L 31..3..
To 47 yd Tow Cloth __                   1/8 _        3.18.4
To 49 yd         do  _                        1/7 _        3.16.10
To Cash -- P W Fobby? __                             6  "    "
To orders on __   do ____                               6  "     "
To  19-2-1? slow?  __                22/         21.11.4    
To  2 brushes _  ___                                            6
To 9? gals drums in devthon of Mrg} 4/6       22. 1   luey? Cargo
To 49 - do from Capt Vandusan         4/6       11,6

                                                                    ____
                                                                     1 3 10

To Cask paid Capt ?pard  Do  __               1
To 1 horn ____                                               20
To  an Order on Lemuel Johnson -                 13

                                                                  _______
                                                                   14 0  6  4
### page 148
And with ----------------------Elijah & Archd. Austin
By the Isle of Wight Lueg & Cargo    L135.16  [Pounds]
By Expence on horses for Brg.? A        15.0
By__ do  --- Hollow  ware                           8.6

          balance due                                   3.6.10
                                                                140.6.?

Errors excepted
1.5.11                                                     E.& A. Austin
10.0
some of it New Haven Novr.  30 Y 18 oz.
but 3/4 wide
Lueg not Included
### page 149
Elijah & Ardnd Austin
Scot
Sent July 26th 1786

 E.
### page 150
New York June 4? 1787
Sir
Having taken the Convenient Stores (on Byvanks?) for the purpose of better accomodating such of our friends as think proper to send their Gods to our Charge; we take the Liberty of acquainting you therewith & of requesting your Consignments to this City -- in Case you have not already established your Correspondent in that Line -- We shall Endeavour at the best Interest of those who favour us with their Business & furnish them in advance if required from twenty five to fifty per Cent on the Estimated Value of the property put into our hands -- holding the Liberty if we find it necessary of disposing of the Same to amount of the Sums advanced in thirty days from the date, & charging an Interest on such advanced sums to the time that they are received from the Sales -- Two & an half per Cent will be our Commission on West India Goods & Country produce & the Customary Storage with Such other incidental Charges as strikethrough: unclear inevitably arise, Whatever orders we may Receive with the Goods respecting their Sales that Do not interfere with the terms above given will be strictly attended to & all orders in purchasing & Shipping of Goods for our friends will be executed in the best manner for their Interest, & at as Low Rates as they are done by other Established Houses in this City --
We remain Sir Your Very Obl Ser
Shaler Sebor
Chauncy Whittelsey Esq
### page 151
Letter from
Shaylor & Sabor
June 1787
### page 152
Much of the left side of the page has been torn off
Mr Chauncey Whittelsy
New York September 29th 1787
Sir
We have given your wines every chance 
damaged market and are convinced that on a sale of the whole 
damaged: will? not be able to get more than thirty five pounds 
damaged Currency average if? so much. In this case the Net
damaged together with the Balance of Rum & Sugar Sales willstrikethrough: do be little
damaged: more? if so much as the amount of monys already advanced 
by us -- Therefore your Note to Haydock & Bowne will in this
damaged remain unsatisfied. This if we remember was £50.. Currcy
damaged if you have given them your positive promise of payment
for this sum from the avails of goods left with us we
damaged: ill on hearing from you pay it them -- and trust it
damaged you to remitt us for the amount -- hoping it will
damaged: our power in the cour? of the approaching month
damaged: y rate before November has expired -- we are
damaged that any sacrifice should be made on the wines. but hope
damaged you have made of those at M Town will fully come
damaged for any loss that arises here -- We remain
Sir Your Very Obt Servt
Shaler & Sebor
NB The Rum has been delivered for Roonvelts note -- we have his Brothers Receipt -- you must if you see him take up the note -- NJ
### page 153
Letter
Shaylor & Sebor
Septr 1787
### page 154
Derby August 6th 1788
We the Subscribers have Appraised the Dwelling house and land that formerly belonged to Mr. William Clark Late of Derby Decd. at the Sum of three hundred Pounds L Money
John Howe
John Humphreys
Samuel Hull
### page 155
Appraisment of Darby
### page 156
Dr. Mr. Chauncey Whittlesey Admn. J. Jaunsey as Charles Chauncey - CM
2782. Apr. Term Fee Jauncey & Filch 15/. Augt Term de 22/6 Term & C+. Arch Clash 26/6.  13,,4.0     Pay Cash C+Fees Clasks ----- £1,,2-6
Seisa. agt Clasks g/. Service. 12/-----1,,1.0
Augt Reln. I Peln agt 6 ha Chauncey L 22/6 Nov Term Fee Jauncey & Filch 154.  1,,17,,6
Dec Term Jauncey & Filch 157. Term & C+ Fees Clasks. 26/6----2,,1,,6
C Fee. Chauncey 2/6  782 Jan Term Fee Jauncey & Filch 6/ Feby Do 14---1,,0,,6
1782 Feby Term & C ag Clask 26/6. Apr Do Fitch 157. Augt. Jauncey & Clask Term unclear 22/6 3,,4 0
Dec. unclear agt Clasks----1,,10,,0
1786 Re Un agt Jno Austin 18/ Feb. 6/ Duly 6/ Signing 3/ Service 6/ term unclear 34/6---3,,13,,6
1784 Feby Arg g Austin 40/ Court 27/----3,,17,,0
£21,,9,,0
### page 157
Acct.
Charles Chauncey Esq.
Fees? Estate of J. Jauncey
E
### page 158
Recd Middletown July 13. 1789 of Mr. Chauncey Whittlesey administrator to Jas Jauncey Esqr. of New York Nine pounds Eighteen Shillings in full of my Demand against sd. Jauncey
Elihu Starr
### page 159
Recd.
Elihu Starr
E
### page 160
Chauncey Whittlesey Do for Surveying a Certain Lot of Land part of the Confiscated Estate of James Jauncey late of New York
My fees     £0..6.0
Chain Men Do      0..8.0

                         £0.14.0

Oliver Blakslee {New Haven County Surveyor}
Received in full of George A. Bristol for said Service
Test O. B
Hamden Decr. 1789
### page 161
unclear Baileys
Bill Surveying
177-
### page 162
Cheshire Decmr. 2d 1789
Sir the Land I Sold at Vendue? for forty Shilling pr. Acre in any kind of this State Securties? to George Bristol the Barrer and you Give him a Deed the Land went to the Highest Bidder
Jonth. Hall
Mr. Chancey Whittlesy
miscellaneous calculation at bottom of page
### page 163
Letter from Jonthn. Hall
Mr. Chauncey Whittlesey Middletown
### page 164
Wallingford 20th December 1789
Chauncey Whittelsey Esqr. of Middletown
damaged the damaged Giles Hall? late of Wallingford Deceased Dr?
to Measuring the Clark farm Octbr. 12th 1784   £0:13:6
to Chain Men and Expenses 7/6                          0- 7-6

                                                                        £1: 0:0

The above account is a true Coppy of the original account of sd Giles Hall Deceased
Test Thankfull Hall Administrator on sd. Giles Halls Estate
this damaged I have unclear
### page 165
Letter from Giles Halls Admst.
Chauncey Whittelsey Esqr
Middletown
### page 166
At a general Assembly of the State of Connecticut, holden at Newhaven on the 2d. Thursday of October, Anno Dom. 1790
Upon the Petition of Theophilus Merriman of Wallingford in the County of New Haven shewing to this Assembly that in the year AD 1771 he the said Merriman purchased of James Jauncey of the City & County of New York his the said Jaunceys part & proportion in seventy Acres of Land & a Dwelling House, sutuate in said Wallingford, being Lands which David Cook by Deed dated January 14th AD 1763 conveyed to said Jauncey & John Smith, together with said Jaunceys right & Interests in certain Lands, sutuate in said Wallingford on the North Side of the Country road, which said Cook purchased of Nathaniel Curtiss & Stephen Peck & by said Deed conveyed to said Smith and Jauncey, and that he the said Merriman has received no Deed of said Lands from said Jauncey & that said Jaunceys estate hath since been confiscated to & for the use of this State, praying? that some suitable may be authorised to remain & release & quit claim to said Petitioner his Heirs & Assigns, all right tittle Interest & estate which this State derived & acquired in & upon said described Lands by virtue of said Jaunceys estates being confiscated as aforesaid as by Petition on file.
Resolved by this Assembly that Chauncey Whittlesey of Middletown in Middlesex County late Administrator on the confiscated estate of said Jauncey be & he is hereby authorised & impowered in behalf of this State to make, execute & acknowledge a Deed of said Lands to said Theophilus his Heirs & Assigns, therein & thereby remising, releasing and quitclaiming to said Theophilus his Heirs & Assigns all right & tittle Interest & estate, which this State, derived & acquired in & upon said described Lands by virtue of said Confiscation of said Jaunceys estate as aforesaid.
A true Copy of Record
Examind. By George Nyllys Secrety.
### page 167
Theoph Merrimans Petition
Bill in Form
### page 168
Sir .. please to pay the Bearer Mr. Abbot twenty one Shillings for Services Done Measuring the Clark Land which was Due to Giles Hall Deceased and this Order is a Receit from Sd. Estate
Thankfull Hall Administratrix on Sd Estate
Wallingford March 8th 1790
To
Mr. Chauncey Whittlesey Esqr of Middletown
### page 169
Order & Rect. No 4
Giles Hall's Estate 91/.
To
Mr.. Chauncey Whittlesey at Middletown
Recd. on the within order twenty one Shillings
pr Josep Abbott
### page 170
Middletown May 2d. 1791
Recd. of Chauncey Whittelsey five Boxes Arms for the Use of the Recruits raised in this State, for the 2d. USA Regiment, which were forwarded to his Care by Capt. John Bryon Comsy of Stores at Springfield.
Also Eight Boxes of Cloathing forwarded to his Care & consigned to me by Mr. Wm. Hill, of New York.
John. H. Buell Capt Comdr.
### page 171
Rect.
Capt. J. Buell
for Arms & Cloathing
May 2d. 1791
### page 172
To Chauncey Whittlesea Esqr.
Sir. Please to deliver Benaiah Stephenson the Cloathing which is to be sent to this Traste? agreeable to the information of your letter to me
John Bryant
deputy Comessr Stores
Springfield May 11th 1791
### page 173
Recd. Middletown May 16th 1791 of Chy Whittelsey four Boxes Cloathing, to be transported to Springfield and deliver Capt. John Bryant on Acct. & Risque of the United States they paying freight for the same four dollars
pr Benaiah Stephenson
### page 174
Middletown May 19th 1791
Recd. of Chauncey Whittelsey Esqr. Seventy six Haversacks with Belts for the same, for the Use of the Company under my Command for which I have given duplicate Receits
pr Josh Shaylor Capt
2nd US Regiment
### page 175
Recd. May 19th
Capt. Shaylor
Haversacks
### page 176
Middletown May 19th 1791
Recd. of Chauncey Whittelsey Esqr. Seventy six Haversacks with Belts for the same for the Use of the Company under my Command for which I have given duplicate Receits
pr Josh Shaylor Capt
2nd US Regiment.
### page 177
Springfield June 16. 1791
Recd of Chauncey Whittlesey Seventy six Haversacks & Belts for the Recruits of the 2 United States Regiment signed two receipts of this Tenor and date
Patrick Phelon Capt
2d United States Regt
Springfield June 16 1791 Received from Chancey Whittelsey Seventy six haversacks and belts for the recruits of the 2d United States Regiment signed two receipts of this Tenor and Date
Patrick Phelon Capt
2d United States Regt
### page 178
Rects.
Capt. Phelon
Haversacks
N.B. Public
### page 179
Recd. Middletown June 22d. 1791 of Chy Whittelsey Seventy Six Haversacks & Belts for the Use of the Company under my Command
Pr John H Buell Capt
### page 180
Recd.
Capt. Bull
for Haversacks
June 25th 1791
### page 181
Chauncey Whittelsey, as Administrator on confiscated estate of James Jauncey,

                                                                        to Samuel W. Dana -------- CD.

1781  Nov.
County Court}   To writ of ejectment 6/trav. er Y6 attende, 7/b Court-fees 4/9 Ex. no 17 Josiah Starr -- 1.1.9 pounds

                          To writ of ejectment 6/trav. er Y6 attende  15/Court-fees 1/3 no. Jn. Welles                1.4.9 pounds

1782   Feb.
Adj. by Court}     To trav. Y6 attende 15/Court-fees 1/3 re Eundesor                                                       18.9

April}         
  County Crts     To 0.o Y6       ---0.o 13/h  0.0 1/3 re Eundesor                                                              17.3
      Nov.}
    County Crts.    To 0.o Y6 attende 1 Y August /Court-fees  8/3 Eundesor (appealed by Welles)           1.10.9 

1783  March}        To 0.o Y6  0.0 7/h                                           Eundesor                                             10.

 Supt. Court
 Sept. Supt. Court  To 0.Y6  0.9/                                                Eundesor                                             11.6

1784 Supt. Crt}       To 0.o Y6   0.o 15                                        Eundesor                                              17.6
Sept. Supt. Crt.        To 0.o Y6  0.o 15                                        Eundesor                                              17.6
Adj. Dec. Supt. Crt}       To 0.o Y6   0.o 15                                        Eundesor                                              17.6
1785 March}

Supt. Crt. }       To 0.o Y6  0.o 15                                        Eundesor                                              17.6

Sept.Supt. Crt}       To 0.o Y6   0.o 15                                        Eundesor                                              17.6

    Nov.

Adj. Supt. Crt.        To 0.o Y6  0.o 15                                        Eundesor                                              17.6

                                                                                                                                                           11.19.9 pounds
                                        deduct Bill Cost re Josiah agreed by him                                                         1.1.9
                                                                                                                                                       due 10.18.0 pounds

Middletown June 28th 1791. I acknowledge myself to have received of Chauncey Whittelsey Esq. the Sum of eleven pounds, nineteen Shillings & nine pence Monet, in full of the above account-------                                         Sam W. Dana

                                                                                                    initials SWD
### page 182
Saml. W. Dana's
accot. against
Estate of Jas. Jauncey
E
£11..19..9
### page 183
This may Certify that Capt Stephen Rainey brought my Company in his sloop from Middletown in Connecticut to this place Brunswick New Jersey
July 3d 1791
Patrick Phelon Captain
2d United States Regt
Mr Whittlesey
### page 184
Capt. Phelon's Certificate of Landing Troops
### page 185
Springfield July 22d 1791
Recived of Mr Chauncey Whittlesey twenty Haversacks & Belts for the use of the 2d United States Regiment
Lem Trescott major
Second United States Regt
### page 186
Rect. for Haversacks, public
Majr. Trescott
### page 187
Middleton July 26th 1791
I acknowledge myself to have recd. a Box of Arms, sent on from Springfield for which Mr. Whittelsey gave on order on the Boatman to Sargeant White
R.V. Howe Lieut..
2d US Regt.
### page 188
Rect
Lt. Nocell for Arms
July 26th 1791
### page 189
Springfield 16th August 1791
Received of Mr Chauncy Whittlesey for the use of the 2d United States Regiment, Fifty Haversacks,
Lem Trescott Major
2d. US. Rgt
### page 190
Rect for Haversack
Aug 16th 1791
Majr. Trescott
Majr. Trescotts Rect. for Haversacks July 16th.
### page 191
Recd. Middleton Octr. 8th 1791 of Chauncey Whittelsey one Coat for Musick? for the 2d. Regiment
pr John Burnham Majr.
2d. Regiment
### page 192
Rect
Majr. Burnham
1 unclear Coat
### page 193
Recd. Middleton Octr. 31st 1791 of Chauncey Whittelsey five Boxes Cloathing the property of the United States, marked & Numbered as in the unclear: Morgin? to be transported to New York on acct. & Risque of the United States, and delivered to Mr. Wm Hill of New York, said Whittelsey to pay Freight for the same. have signed duplicate Receits.
William Warner
[[in margin: 5 Boxes No. 3 to 7
### page 194
Rect.
Wm Warner
Oct. 1791
Cloathing
del Wm Hill
Recd. a Rect. from Mr. Wm Hill for five Boxes Cloathing mentioned within
Chy Whittelsey
### page 195
Received New York 24th. Novemr. 1791 from Capn. William Warner of the [Scho Patty?]] Five Boxes Containing clothing for the Troops in the Service of the United States
William Hill
### page 196
Middleton Decr. 3d. 1791 Recd. from Chauncey Whittelsey of the public Cloathing & Arms left in his care belonging to the 2d. Regt.
Three Coats - Three Vests - Three Hats - three pair Woolen Overalls - Thirteen Pair Linnen do. - seven Shirts - Seven pair Shoes - Three Stocks & Clasps - Three Blankets - Six pair Socks - four Guns - four Bayonets - four Cartridge Boxes & Balls four Wo? three Screws - strikethrough: one (unclear) - with (unclear) - & strikethrough: one Fife.
Cornelius Lyman Lt
2d Regiment
### page 197
Rect.
Cloathing & Arms
Lt. Lyman
Decr. 1791
### page 198
Received New York June 23rd 1792 of Mr Chauncey Whittelsey by the hands of Timothy Hall Three boxes said to contain three hundred pistols being the property of the United States & are to be delivered to the Order of the Secretary of War.
for Melancton Smith
L? Benton
3 Boxes 300 Pistols
### page 199
Rect.
Melancthon Smith
3 Boxes Pistols
June 1792
Mr. Smiths Receit
### page 200
New york Octr. 20t 1792
Chauncey Whittlesey
Rct of White & Wardell
1 Ream writing paper £1-7-0
Pluo? One pound Seven Shillings
for the above paper
White & Wardell
### page 201
Bill No. 1
White & Wardell
Octr. 1792
2 M.S
### page 202
Recd. Middleton Jany 22d. 1792 of Chy Whittelsey the following Articles of Soldier Cloathing vz -
1 New Coat
1 do Vest
1 do Hatt
1 do Stock & Clasps?
1 do Socks
2do Shirts
1 pr. old Shoes
1 pr. do. Linnen Overalls
1 new Blankett
John Buell Cpt
2d. US Regt.
### page 203
Rect
Capt. Buell
Cloathing
Jany 1793
### page 204
Wethersfield 22th of April 1793
Recd. on board of my boat Five boxes of Clothing from Richard Bacon in good order which I am to Deliver in like good order to Capt. Cornelius Lyman at Springfield landing having Recd. at the Same time four Dollars in full for the strikethrough: fre fright of the Same
Jared Drake
### page 205
Jarod Drake
Recpt for Goods
5 Boxes Cloathing
### page 206
Recd. Middletown May 31st. 1793 of Chauncey Whittelsey Esqr from the Clothing left in his charge, Eleven Coats. Nine Vests - Six W Overalls. Eight Hatts. Twelve pair Shoes. Ten Stocks Four Shirts. Five pr Socks. Thirteen Blankets
John Pratt Capt
Recd. Middletown May 31st 1793 of Chauncey Whittelsey Esqr
Four Cartridge Boxes & Belts Six Musquetts Four Bayonets. Four Prickers?. Sixty Flints Four Gun Slings
John Pratt Captn.
### page 207
Capt. Pratts Rects for Cloathing and Arms
### page 208
Recd. Middletown Mar 14th 1791 of Chy Whittelsey Twenty seven Brass Howitzers to be transported to N. York, on Acct. & Risque of the United States, and delivered to Messrs Manning & Wycoff Merchts. - sd. Whittelsey to pay therefor Freight accustomed. having signed Duplicate Receits.
Asa Gilbert
### page 209
Recd. New York May 28th 1794 of Capt Asa Gilbert Twenty Seven Brass Howitzers the property of the United States
Manning, Wychoff & Co.
Rect.
Manning & Wycoff for 27 Howitzers
May 28 1794
### page 210
Recd. Middletown June 25th 1794 of Chy Whittelsey Three Hogds & one small Bail of Cloathing on Acct. of United States, all appearing in good order
Russell Bissell Capt.
### page 211
Rect.
Capt. R Bissell
Aug 12th 1794
for Cloathing
### page 212
Receivd Springfield Masstts. 23d July 1794 of Nathl Conklin two hogheads one Tierce and one bail all said to contain clothing for the United States Troops - to appearance in good order
Cornelius Lyman Captn
2d Sub Legion
### page 213
Rect.
Capt. C Lyman
Cloathing
June 1794
### page 214
Recd. Middleton Aug 12th 1794 of Chy Whittelsey fifteen Six pound Brass Cannon Ten three Pound do. all with Carriages Compleat, to be transported to New York, on Acct. and Risque of the United States, and delivered to Messr. Manning & Wycoff Merchants in New York, sd. Whittelsey to pay freight there for Eighty Dollars, having signed duplicate Receits
Robert Stewart
### page 215
Recd. New York Augst. 19th 1794 of Capt Robert Stewart the Twenty five pieces of Cannon as specified within -
Manning, Wyckoff & Co.
Rect.
Manning & Wycoff
for Cannons
Aug 19th 1794
### page 216
Recd. Middleton Aug 21t 1794 of Chy Whittelsey one Box containing five hundred Portifires to be transpotd to N. York & delivered to Messrs Manning and Wyckoff Merchts. New York, sd. Whittelsey to pay freight for the same three Shillings L.? W. - the same being on Acct. & Risque of the United States
Walter Bundington
### page 217
Rect
Walter Buddington
1 Box Portfires
Aug 1794
### page 218
Recd. New York Octr. 3d 1794 from on board the Sloop Hartford, Benjamin Olmsted master Five Chests said contain Pistols the property of the United States & addressed to Saml. Hodgdon Esqr. at Phila.
Mannng, Wyckoff & Co.
### page 219
Recd. Middletown Septr. 27th 1794 of Chy Whittlesey Five chests of Pistols, to be transported to New York on Acct. and Risque of the United States, and delivered to Messrs Manning & Wycoff Merchants in New York sd Whittelsey to pay freight there for five Dollars having signed duplicate Receits
Benjn. Olmsted
Rects.
Manning & Wycoff
Pistols
Octr. 1794
### page 220
Sir
Please to furnish the sick at the barracks with three pounds of rice & one pound of sugar and charge to public Acct
Ebenr. Tracy Surgeon
Chauncey Whittelsey Esqr
Middeltown May 7th 1795
### page 221
Rect.
Hospital Stores
May 18 1795
Recd. the within for the Purpose mentioned
Russell Biskell Capt
### page 222
Middletown June 23d. 1795
Sr.
The unexpected Difficulties that have arisen, in getting away the Troops under my Command, at the time expected arising from the Difficulty of turning the Notes which I recd. to pay their Wages into Cash, make it but just that Demurrage should be alowed according to Agreement, for the Detention of the Vessell, you will therefore pay the Sum of Twenty Dollars, in full of that part of the Bargain & charge Acct. of United States
Donald G Mitchell Capt. of Artilry Engineers
### page 223
Certificate & order for Demurrage
Capt. Mitchell
### page 224
Chauncey Whittelsey to Jesse S. Peck - D 6? 1795
July 9th To Demmurage of Vessell four Days, when employed to transport, a Detachment of Recruits, under Command of Capt. Mitchell - @ 5 Dols - Dolr. 20.00
Recd. Middletown July 9th 1795 of Chy Whittelsey twenty Dollars in full of the above Account
Jesse S. Peck
### page 225
Bill No. 42
2 US
July 9th 1795
### page 226
Left in my Care by Capt Edward Miller
1 Box of Clothing Containing
One Hundred eleven pr. Shoes
Fifty five Pair Socks
Forty Eight Pair Woolen Overhalls
Fifteen Vests
Nine Coats
Eight Knapsacks
Thirteen Hatts
Three Socks
Five pr. Clasps
strikethrough?: Four (unclear
Fourteen Blankets
Five Pair Lennen Overhalls
Nineteen Shirts belong to the United States Middletown May 31st. 1796
CW
Copy
### page 227
Copy of Rect to Capt Miller for Cloathing May 31st. 1796
### page 228
The one eighth part of a Dwelling House and about 20 acres of Land lying in Derby near the narrows (being the Land and Buildings Deeded by Hannah Clarke & sheldin Clarke Executor to the Last Will & testament of Wm. Clarke of Derby Desed [deceased].) unto James Jauncy, Robert Ray, & Elisabeth Hazard of New York bounded North on Wm. Clarke & James Beard, East on sd. Beard and the heirs of James Wheeler, South on Benjn. Davis and the heirs of James. Deming & Richard Mansfield, West part on highway and part on Lanad of Daniel Todd and Elijah Hotchkiss, also the Bank of Land lying west of the highway to the Narrows, bounded strikethrough: west East on highway North on Wm. Clarke, West on Nagutuck River, South on Daniel Todd
### page 229
Description and boundaries of James Jauncys Land in Derby 1788
### page 230
Do.. Chanuy Whittlesey Esquire to Robert Warner
1795 May 16 To 1 Kegg Iron Bound - 6/To half Blel for Troops 6/6----£ 0..10:6
To 2 flower Blel & 2/-- for do---0..4.0
18? To 2 Read Oak Hhd. do---@ 10/---1..0.0
20 To 16 Blel hoops---0..4..0
June 19. To 1 Kegg for Troops --4/ To 1 Blel for Flower 2/---0..6..0
August 11- To 3 Hhd hoops 1/-(24) To 5 hoops - 1/3---0:2:3
Septm. 8 To 18 hoops 4/6---0..4.6
Octb- - 25 To one Well Buket for the Troops delid p Order 3/ ---0..4:6.
To Iron hoops for ditto to 1/6---
Novem. 2. To 1 Kegg for troops 4/6 To 5 hoops & heading 2 Blels 1/11--- 0..6..5
26..To 35 hoops 10/1p---0..10:0 1/2
Decem. 4. To 5 hoops 1/8---0..1..8
1796 May 27.. To & Kegg. for troops 5/6---0..5..6
June 27. To 8 Blels 2/4 To 3 Hhd 1/---0..3:4.
August 24 To 1 well Bucket 3/- To 1 3/4 Iron hoops for ditto--/10---0..3..10
Septem - 2 To 13 hoops 4/4. To new Graase & Reparing a pick?  0..5:3
To 6500 Shingles delied Mr. Breins & discount with
John R: ? ---@18/pM--5..7.0
To Cash paid Supervisor for Wine Quince ---1:10:0
11..10..7 1/2
deduct credited before 3 first charges/ - 1..14..6
Errors Excepted   10.4..1 h
Robert Warner
### page 231
Account Majr. R Warner
Jany 1798
Settled
### page 232
Chancey Whittlesey Esquire
To Hudson & Goodwin Dm:?
1798
June 21 To one Ream of writing paper unclear  £1..0..0
Septr 18 To 1 Lathrop Serman?                            0.11

                                                                      £1..0..11

payment Recd of Mr. Witmore
Hudson & Goodwin
[[in margin:
3.17.  1
1.  0 11
2.16   2]]
### page 233
Hudson & Goodwin
a/c with - Sept. 1798
Chancey Whittlesey Esqr
### page 234
(q. q.)
This is to Certify, that Chancey Whittelsey, of the Town of Middletown, in the County of Middletown, in the District of Connecticut, Esquire -- hath paid the duty of Two Dollars, upon a Two wheel Carriage, called a Sulkey, owned by him, having No top, on Wooden Springs, to be drawn by One Horse, for the conveyance of one person; for the year to end on the 30th of September 1798
Robert Warner
Collector of the revenue for the 5th of 6th division in the only survey in the District of Connecticut
### page 235
Rect. for Duty on unclear Sulkey
Septr. 1797
### page 236
paper torn Whittelsey Esq....To...Jonathan Hubbard Junth ---Due
for the New Meeting House
To 15 1/2  8d Nails 1h  Making  at 5d  £0,,6,,5 1/2
6 To 10 1/4  8d  do  do  at 5d  ,,4,3 1/4
8 To 16 8d  do  do  do  ,,6,,8
26  To 25 1/4 8d  do  do  do  ,,10,,6 1/4
6 m1/4 8d  do  do  do ,,2,,7 1/4
29  To  5 3/4 8d  do  do  do ,,2,,4 3/4
Octo  5  To  17 8d  do  do  do ,,7,,5
hundred 4d  do  my Own Iron unclear  ,,7-
19  To  12 3/4  8d  do  Making  do  5,,3 3/4
47 1/2 8d  do  do  do  ,,19,,9 3/4
156 1/4        £3,,12,,1 1/2
Middletown Dec. 14th..1798 Errors Excepted
Jonathan Hubbard unclear
### page 237
damaged house
damaged Decr. 15, 1798
Jonthn. Hubbard Jnr.
### page 238
District of New London 1799
I hereby acknowledge to have received of Chauncey Whittelsey Collector of the Customs for the district of Middletown the sum of Three Hundred twenty seven dollars & fifty six cents being the amount of monies collected by him for the support of the MARINE HOSPITALS of the United States, from September 1, 1798 until 30 June 1799 agreeably to a letter of advice from the Secretary of the Treasury, dated fifth of October 1799 for which I have signed duplicate receipts.
Jed Huntington
agent for marine Hospital 
New London
$327.56
### page 239
Rect. Octr. 16th 1799
Hospital Tax